{
  "Order": 3,
  "Key": "ВКЛАДЫ И КРЕДИТЫ",
  "Name": [
    "ВКЛАДЫ ",
    "И КРЕДИТЫ"
  ],
  "IconCss": "ico-menu_deposits",
  "Want": "ХРАНИТЬ ДЕНЬГИ В БАНКЕ",
  "Can": "ОТКРЫТЬ СЧЕТ ИЛИ ВКЛАД",
  "Know": "ХОЧУМОГУЗНАЮ.РФ",
  "List":[
    "как выбрать надежный банк",
    "вклад до 1 400 000 рублей гарантируется государством",
    "вклад можно забрать в любой момент",
	"высокие проценты = высокие риски"
  ],
  "HasExtras": false
}
