{
  "Order": 2,
  "Key": "АВТОКРЕДИТ",
  "Name": "АВТОКРЕДИТ",
  "IconCss": "ico-menu_autocredit",
  "Want": "АВТОМОБИЛЬ",
  "Can": "ВЗЯТЬ АВТОКРЕДИТ",
  "Know": "ХОЧУМОГУЗНАЮ.РФ",
  "List":[
    "кредит в салоне часто дороже, чем в банке",
    "как правильно застраховать автомобиль",
    "автомобиль в залоге у банка",
	"кредит за угнанный автомобиль нужно выплачивать"
  ],
  "HasExtras": false
}
